[32m.[0m[32m.[0m[32m.[0m[32m.[0m[32m.[0m[32m.[0m[32m.[0m[32m.[0m[31mF[0m[36m-[0m

(::) failed steps (::)

ok

Failing scenarios:
C:\Users\Ernie\Dropbox\HAN-prive\CRIA\WT\Opdracht 2 - Photoviewer\features\photoViewer.feature:7 # Scenario: The pop up

2 scenarios ([31m1 failed[0m, [32m1 passed[0m)
10 steps ([31m1 failed[0m, [36m1 skipped[0m, [32m8 passed[0m)
